<svg width="64" height="64" viewBox="0 0 64 64" fill="none" xmlns="http://www.w3.org/2000/svg">
<path d="M36.2858 21.4599L35.9702 21.7422L24.4658 33.3727L23.7739 34.0665L24.4668 34.7926L34.0479 44.3729L34.7741 45.0657L35.4699 44.3729L47.0984 32.8695L47.3798 32.5528V21.4599H36.2858ZM37.1371 23.4768H45.3627V31.7017L34.773 42.2279L26.6099 34.0655L37.1371 23.4768ZM42.3371 25.4937C42.0696 25.4937 41.8131 25.5999 41.6239 25.789C41.4348 25.9782 41.3285 26.2347 41.3285 26.5021C41.3285 26.7696 41.4348 27.0261 41.6239 27.2152C41.8131 27.4043 42.0696 27.5106 42.3371 27.5106C42.6046 27.5106 42.8611 27.4043 43.0502 27.2152C43.2394 27.0261 43.3456 26.7696 43.3456 26.5021C43.3456 26.2347 43.2394 25.9782 43.0502 25.789C42.8611 25.5999 42.6046 25.4937 42.3371 25.4937Z" fill="#828282"/>
<path fill-rule="evenodd" clip-rule="evenodd" d="M27.753 40.986L20.9529 47.6216C20.5356 48.0288 19.859 48.0288 19.4417 47.6216L12.6417 40.986C12.2244 40.5788 12.2244 39.9186 12.6417 39.5114C13.0589 39.1043 13.7355 39.1043 14.1528 39.5114L19.1288 44.3671L19.1288 17.1679L21.2658 17.1679L21.2658 44.3671L26.2418 39.5114C26.6591 39.1043 27.3357 39.1043 27.753 39.5114C28.1702 39.9186 28.1702 40.5788 27.753 40.986Z" fill="#2F80ED"/>
</svg>
