<svg width="25" height="25" viewBox="0 0 25 25" fill="none" xmlns="http://www.w3.org/2000/svg">
<path d="M19.5159 19.1424C19.8894 19.1424 20.213 19.0191 20.4881 18.7756L15.781 14.0684C15.6681 14.1493 15.5586 14.2279 15.4552 14.3027C15.103 14.5622 14.8171 14.7647 14.5976 14.9099C14.3781 15.0553 14.086 15.2036 13.7215 15.3549C13.3567 15.5065 13.0168 15.582 12.7015 15.582H12.6923H12.6831C12.3678 15.582 12.0279 15.5065 11.6631 15.3549C11.2984 15.2036 11.0063 15.0553 10.787 14.9099C10.5675 14.7647 10.2818 14.5622 9.92936 14.3027C9.83115 14.2307 9.72223 14.1517 9.60447 14.0671L4.89655 18.7756C5.17161 19.0191 5.49542 19.1424 5.86884 19.1424H19.5159Z" fill="#E0E0E0"/>
<path d="M5.32193 11.1043C4.96971 10.8695 4.65736 10.6005 4.38544 10.2976V17.4592L8.53419 13.3105C7.7042 12.731 6.63481 11.9965 5.32193 11.1043Z" fill="#E0E0E0"/>
<path d="M20.0723 11.1043C18.8095 11.959 17.7362 12.6948 16.8524 13.3121L20.9994 17.4594V10.2976C20.7336 10.5944 20.4246 10.8632 20.0723 11.1043Z" fill="#E0E0E0"/>
<path d="M19.5166 6.08862H5.86953C5.39343 6.08862 5.02739 6.2494 4.77097 6.57061C4.51434 6.89197 4.38623 7.29387 4.38623 7.77586C4.38623 8.16518 4.55623 8.58702 4.89609 9.0415C5.23594 9.4958 5.59758 9.85263 5.98081 10.1122C6.1909 10.2606 6.82446 10.7011 7.88148 11.4334C8.45209 11.8288 8.94831 12.1735 9.37474 12.4709C9.73821 12.7241 10.0517 12.9435 10.3105 13.1255C10.3402 13.1463 10.3869 13.1797 10.4489 13.2241C10.5157 13.2721 10.6003 13.333 10.7046 13.4083C10.9055 13.5535 11.0723 13.671 11.2052 13.7607C11.3379 13.8504 11.4987 13.9506 11.6874 14.062C11.8759 14.1731 12.0537 14.2567 12.2205 14.3123C12.3874 14.3678 12.5419 14.3957 12.6841 14.3957H12.6933H12.7025C12.8446 14.3957 12.9992 14.3678 13.1661 14.3123C13.3329 14.2567 13.5105 14.1733 13.6992 14.062C13.8877 13.9506 14.0482 13.8502 14.1814 13.7607C14.3143 13.671 14.4812 13.5536 14.682 13.4083C14.7861 13.333 14.8707 13.272 14.9375 13.2242C14.9995 13.1797 15.0462 13.1465 15.0761 13.1255C15.2777 12.9852 15.5919 12.7668 16.0143 12.4734C16.783 11.9394 17.915 11.1534 19.4151 10.1122C19.8662 9.79707 20.2432 9.4168 20.5461 8.97191C20.8485 8.52703 21.0001 8.06037 21.0001 7.57208C21.0001 7.16411 20.8531 6.81503 20.5597 6.52428C20.2661 6.23389 19.9183 6.08862 19.5166 6.08862Z" fill="#E0E0E0"/>
</svg>
