<svg width="238" height="168" viewBox="0 0 238 168" fill="none" xmlns="http://www.w3.org/2000/svg">
<path d="M94.3847 61.2523C91.6087 64.5119 89.5267 67.2478 87.2133 69.6343C80.5046 76.5612 74.085 83.8955 66.7402 90.0657C53.4962 101.184 37.9968 104.269 21.1672 101.009C14.2849 99.6701 7.51839 98.0985 1.79285 93.791C1.09884 93.2671 0.578338 92.5686 0 91.9283C0.115668 91.6955 0.231335 91.4627 0.404836 91.2298C1.56151 91.5209 2.71819 91.7537 3.87486 92.103C12.3764 94.8388 20.9358 97.1672 30.0157 96.3522C38.1703 95.6537 44.4163 91.1716 49.6792 85.5836C58.6434 75.9791 67.0293 65.8507 75.5887 55.897C84.0903 46.0597 92.4183 35.9896 103.754 29.1209C116.362 21.4373 129.895 20.0403 144.006 23.5911C156.093 26.6179 168.007 30.2269 180.094 33.1373C183.854 34.0687 187.902 34.1269 191.835 33.8941C198.023 33.5448 203.17 28.1314 203.806 21.7866C199.816 19.5747 196.172 16.7224 195.478 11.7165C195.131 9.21347 195.652 6.59407 195.825 2.92691C199.411 4.44034 202.187 5.4881 204.732 6.82691C206.004 7.46721 207.392 8.45676 208.086 9.67915C210.862 14.6851 216.067 16.1985 220.404 19.1672C226.188 23.0672 231.509 27.7821 236.829 32.3224C238.738 33.9523 238.217 36.4552 235.962 37.9687C231.913 40.6463 227.229 40.7045 222.776 40.006C219.074 39.4239 215.546 37.9105 211.903 36.1642C213.002 37.4448 214.101 38.7254 215.431 40.297C213.811 42.6836 212.308 45.303 210.515 47.6896C203.864 56.7702 195.652 63.9299 185.993 69.6925C183.507 71.206 182.176 75.2806 181.02 78.4239C180.036 81.2179 180.094 84.3612 179.689 87.388C178.764 93.7328 172.171 100.893 165.983 102.231C165.347 102.348 164.19 102.173 164.074 101.824C163.843 101.242 163.959 100.252 164.364 99.6701C165.578 97.8657 166.85 96.003 168.354 94.3731C172.981 89.4254 172.576 83.6045 171.824 77.4925C171.13 71.497 171.246 65.6179 175.872 60.8448C172.749 61.7761 169.858 65.8508 169.337 70.6239C169.106 73.0687 168.296 74.2328 165.694 74.5239C157.944 75.2806 150.194 76.7358 142.387 74.9895C141.693 74.8149 140.999 74.6403 140.073 74.4075C139.958 69.6343 138.628 65.3269 134.348 61.6597C140.767 73.3597 135.215 81.7418 128.391 89.7164C120.063 99.4373 109.884 106.655 98.7801 112.825C94.7895 115.037 91.2617 118.181 87.5025 120.858C81.8348 124.991 80.5046 130.987 79.7528 137.564C78.6539 147.343 76.3984 156.831 69.8054 164.631C69.6318 164.864 69.5162 165.097 69.3427 165.272C68.0125 166.494 66.9137 168.997 64.8895 167.425C63.9063 166.669 64.022 164.282 64.022 162.594C63.9641 159.684 63.7906 156.657 64.4268 153.863C66.2775 146.121 68.4752 138.495 70.5572 130.87C71.4825 127.552 72.1187 124.176 73.391 121.033C74.2007 119.054 75.5887 116.958 77.2659 115.678C85.7675 109.1 93.1702 101.475 98.7801 92.2194C100.457 89.4836 100.804 86.7477 99.8789 83.7209C98.3174 78.4821 96.6402 73.3015 95.2522 68.0627C94.5582 66.2 94.6739 64.2209 94.3847 61.2523Z" fill="#0B73FC"/>
<path d="M206.756 57.9925C210.515 80.7521 199.179 111.836 169.8 125.748C142.907 138.495 113.875 129.939 99.821 116.26C103.407 114.106 107.05 112.127 110.462 109.857C121.162 102.755 130.82 94.4312 137.239 83.0805C139.379 79.2969 141.23 78.7148 145.336 79.0641C151.698 79.6462 158.233 78.6566 164.711 78.3074C165.636 78.2492 166.561 78.0745 168.354 77.8999C168.123 81.4507 168.701 85.0596 167.544 88.0283C166.33 91.288 163.67 94.082 161.414 96.876C159.621 99.1462 159.158 102.115 160.778 104.094C162.571 106.364 165.115 106.539 167.487 105.491C177.318 101.125 183.853 94.373 183.911 82.7313C183.911 77.2014 186.109 73.1268 191.372 70.2163C196.172 67.5969 200.163 63.4641 204.442 59.9716C205.252 59.4477 205.888 58.8074 206.756 57.9925Z" fill="#D1D3D4"/>
<path d="M79.8106 45.2448C85.6518 25.1045 105.604 3.10157 135.562 0.307546C163.901 -2.37006 186.051 12.8807 195.709 28.7717C192.182 31.0419 188.191 31.1001 184.548 30.2269C173.906 27.7239 163.496 24.5225 152.855 22.0777C145.163 20.3314 137.297 18.4687 129.432 18.1777C118.212 17.7702 107.686 21.2045 98.7222 28.1896C92.6497 32.9045 87.1555 38.4926 81.43 43.7314C80.9673 44.0807 80.5046 44.5463 79.8106 45.2448Z" fill="#D1D3D4"/>
<path d="M91.8978 70.6239C93.4593 75.9791 95.4256 81.0433 96.1775 86.2821C96.5245 88.4941 94.6738 91.2881 93.2858 93.5C91.493 96.3523 89.2374 98.9135 86.7506 102.057C85.4782 99.8448 84.4372 98.215 83.6854 96.5269C82.1239 93.0926 80.7359 89.6 79.3479 86.1075C79.1165 85.4672 79.0587 84.303 79.4057 83.8956C83.1071 79.5881 86.9819 75.3971 90.7989 71.1478C90.9724 70.9732 91.2038 70.9732 91.8978 70.6239Z" fill="#D1D3D4"/>
</svg>
