<svg width="193" height="49" viewBox="0 0 193 49" fill="none" xmlns="http://www.w3.org/2000/svg">
<g clip-path="url(#clip0)">
<path d="M27.5197 17.8784C26.7043 18.8374 26.1154 19.6137 25.4359 20.3216C23.488 22.3309 21.608 24.4772 19.4789 26.281C15.6284 29.5233 11.0985 30.4366 6.18343 29.4777C4.19024 29.0895 2.21969 28.6328 0.520948 27.377C0.317099 27.24 0.181199 27.0117 0 26.829C0.0452999 26.7605 0.0679498 26.692 0.11325 26.6235C0.452999 26.7148 0.792747 26.7833 1.1325 26.8747C3.60134 27.6738 6.09283 28.3588 8.74287 28.1077C11.1211 27.9022 12.9558 26.6007 14.4733 24.9567C17.078 22.1482 19.5242 19.1799 22.0384 16.2801C24.5299 13.4031 26.9534 10.4805 30.2377 8.47113C33.9069 6.23348 37.8707 5.82249 41.9703 6.84998C45.4811 7.74047 48.9691 8.7908 52.4799 9.63563C53.5671 9.90963 54.7675 9.93246 55.9 9.86396C57.712 9.74979 59.2069 8.1743 59.3881 6.32482C58.2103 5.68549 57.1684 4.84066 56.9646 3.40217C56.8513 2.67151 57.0099 1.91801 57.0552 0.822021C58.0971 1.27868 58.9125 1.57552 59.6599 1.96368C60.0223 2.14635 60.43 2.44318 60.6339 2.78567C61.4493 4.247 62.9668 4.70366 64.2125 5.54849C65.9113 6.69015 67.4515 8.06014 69.0143 9.38446C69.5806 9.86396 69.422 10.5946 68.7652 11.0285C67.5874 11.8048 66.2284 11.8276 64.9147 11.6221C63.8275 11.4623 62.8082 11.0056 61.7437 10.5033C62.0608 10.8686 62.3779 11.2568 62.7629 11.7134C62.3099 12.4213 61.8569 13.1748 61.336 13.8598C59.4108 16.5084 57.0099 18.6091 54.1786 20.2759C53.4538 20.7097 53.0688 21.897 52.729 22.8332C52.4346 23.6552 52.4572 24.5685 52.344 25.4362C52.0722 27.2857 50.1696 29.3635 48.3349 29.7517C48.1537 29.7973 47.814 29.7288 47.7687 29.6375C47.7007 29.4777 47.746 29.1808 47.8593 28.9982C48.2217 28.473 48.5841 27.925 49.0144 27.4683C50.3734 26.0298 50.2375 24.3174 50.0337 22.5364C49.8298 20.801 49.8525 19.0657 51.2115 17.6729C50.3055 17.9469 49.4674 19.1342 49.3089 20.5271C49.2409 21.2349 49.0144 21.5774 48.2443 21.6687C45.9794 21.897 43.7144 22.308 41.4494 21.8057C41.2455 21.76 41.0417 21.6915 40.7699 21.623C40.7246 20.2302 40.3622 18.9744 39.0938 17.9012C40.9737 21.3034 39.3429 23.7694 37.3497 26.0983C34.9262 28.9297 31.959 31.0531 28.7201 32.857C27.5423 33.5191 26.5231 34.4096 25.4359 35.2088C23.7824 36.4189 23.3974 38.1543 23.1709 40.0951C22.8538 42.9492 22.1969 45.712 20.2717 47.9954C20.2264 48.0639 20.1811 48.1324 20.1358 48.178C19.7507 48.5205 19.4336 49.2512 18.8447 48.8173C18.5729 48.6119 18.5956 47.904 18.5956 47.4017C18.5729 46.5569 18.5276 45.6664 18.7088 44.8444C19.2524 42.5839 19.8866 40.3691 20.4982 38.1314C20.77 37.1724 20.9512 36.1678 21.3362 35.2544C21.5627 34.6608 21.9704 34.0671 22.4687 33.7018C24.9602 31.7838 27.0893 29.569 28.7428 26.8518C29.2184 26.0527 29.3317 25.2535 29.0599 24.363C28.6069 22.8332 28.1086 21.3262 27.7009 19.7964C27.565 19.3397 27.5876 18.7461 27.5197 17.8784Z" fill="#0B73FC"/>
<path d="M60.2715 16.9421C61.3587 23.5866 58.0518 32.6514 49.5127 36.7157C41.6759 40.4375 33.2048 37.9487 29.1278 33.9529C30.1697 33.3364 31.2343 32.7427 32.2308 32.0805C35.3565 30.0027 38.1651 27.5824 40.0224 24.2716C40.634 23.1756 41.1776 22.9929 42.378 23.1071C44.2353 23.2669 46.1379 22.9929 48.0179 22.9016C48.2896 22.8788 48.5614 22.8331 49.0824 22.7874C49.0144 23.8378 49.173 24.8881 48.8559 25.7329C48.4935 26.6919 47.7234 27.4911 47.0666 28.3131C46.5456 28.9752 46.4097 29.8429 46.8854 30.4365C47.4063 31.0987 48.1537 31.1444 48.8559 30.8475C51.7324 29.5917 53.6124 27.6052 53.635 24.2031C53.635 22.6048 54.2692 21.3946 55.8094 20.5498C57.2137 19.7735 58.3689 18.5861 59.6146 17.5586C59.8185 17.376 60.0223 17.1705 60.2715 16.9421Z" fill="#D1D3D4"/>
<path d="M23.2615 13.2204C24.9602 7.32943 30.7812 0.913311 39.5015 0.0913166C47.746 -0.685011 54.2239 3.76746 57.0325 8.40259C56.0133 9.06475 54.8581 9.08759 53.7709 8.81359C50.6905 8.08293 47.6328 7.1696 44.5524 6.43894C42.3101 5.91378 40.0224 5.38861 37.7348 5.29728C34.4732 5.18311 31.3928 6.18777 28.7881 8.21993C26.9987 9.61275 25.4132 11.2339 23.7598 12.7637C23.6012 12.8779 23.488 13.0149 23.2615 13.2204Z" fill="#D1D3D4"/>
<path d="M26.7949 20.6411C27.2479 22.1938 27.8141 23.6779 28.0406 25.2078C28.1312 25.8471 27.6103 26.6691 27.2026 27.3084C26.6816 28.1532 26.0248 28.8839 25.3 29.7972C24.9376 29.1579 24.6205 28.6784 24.394 28.1761C23.941 27.1714 23.5333 26.1667 23.1256 25.1393C23.0576 24.9566 23.035 24.6141 23.1482 24.4999C24.2354 23.2441 25.3453 22.0111 26.4778 20.7781C26.5231 20.7324 26.591 20.7324 26.7949 20.6411Z" fill="#D1D3D4"/>
<path d="M85.5035 11.3708C86.7492 11.3708 87.8817 11.5078 88.8783 11.7818C89.8749 12.0558 90.7356 12.444 91.4151 12.9463C92.1173 13.4487 92.6382 14.088 93.0233 14.8187C93.4083 15.5493 93.5895 16.3941 93.5895 17.3075C93.5895 18.8145 93.295 20.0703 92.7288 21.1206C92.1626 22.1709 91.3698 22.9929 90.3506 23.6323C89.3313 24.2716 88.1535 24.7283 86.7945 25.0023C85.4355 25.2763 83.9406 25.4133 82.3325 25.4133H81.1773L79.5239 32.3545H74.926L79.7731 11.896C80.8376 11.6905 81.8568 11.5535 82.8308 11.485C83.7594 11.4165 84.6654 11.3708 85.5035 11.3708ZM85.1184 15.2982C84.7787 15.2982 84.4842 15.2982 84.2577 15.321C84.0086 15.3438 83.7821 15.3667 83.5556 15.3895L82.1286 21.5088H83.2838C84.1218 21.5088 84.8693 21.4403 85.5488 21.3033C86.2283 21.1663 86.8172 20.9608 87.2928 20.664C87.7685 20.3671 88.1535 19.979 88.4253 19.4995C88.6971 19.02 88.833 18.4491 88.833 17.787C88.833 16.8965 88.5159 16.2571 87.8591 15.869C87.2249 15.5037 86.3189 15.2982 85.1184 15.2982Z" fill="#1271FE"/>
<path d="M105.39 20.4585C104.982 20.3672 104.597 20.253 104.212 20.1845C103.827 20.0932 103.261 20.0475 102.514 20.0475C102.242 20.0475 101.925 20.0703 101.585 20.116C101.245 20.1617 100.973 20.2302 100.747 20.2758L97.8704 32.3774H93.431L96.987 17.4445C97.8477 17.1705 98.799 16.8965 99.8636 16.6454C100.928 16.3942 102.129 16.28 103.442 16.28C103.941 16.28 104.484 16.3257 105.096 16.417C105.707 16.5084 106.228 16.6454 106.681 16.8509L105.39 20.4585Z" fill="#1271FE"/>
<path d="M110.079 32.3774H105.685L109.399 16.6225H113.839L110.079 32.3774ZM112.208 14.7045C111.596 14.7045 111.03 14.5218 110.532 14.1565C110.033 13.7912 109.784 13.2204 109.784 12.4669C109.784 12.0559 109.875 11.6449 110.033 11.2795C110.192 10.9142 110.418 10.5945 110.713 10.3205C110.985 10.0465 111.302 9.84104 111.687 9.68121C112.049 9.52138 112.434 9.45288 112.865 9.45288C113.476 9.45288 114.042 9.63555 114.518 10.0009C115.016 10.3662 115.265 10.937 115.265 11.6905C115.265 12.1015 115.175 12.5125 115.016 12.8779C114.858 13.2432 114.631 13.5629 114.337 13.8369C114.065 14.1108 113.748 14.3163 113.363 14.4762C113.023 14.636 112.615 14.7045 112.208 14.7045Z" fill="#1271FE"/>
<path d="M117.666 17.3532C118.006 17.2619 118.369 17.1477 118.776 17.0107C119.184 16.8737 119.637 16.7595 120.135 16.6454C120.634 16.5312 121.2 16.4399 121.834 16.3714C122.468 16.3029 123.17 16.2572 123.963 16.2572C126.296 16.2572 127.904 16.9422 128.787 18.2894C129.648 19.6593 129.807 21.5088 129.24 23.8607L127.225 32.3774H122.785L124.756 24.0433C124.869 23.5182 124.96 23.0158 125.028 22.5363C125.096 22.0568 125.096 21.623 125.005 21.2577C124.914 20.8923 124.733 20.5955 124.461 20.3672C124.167 20.1388 123.737 20.0247 123.148 20.0247C122.581 20.0247 121.993 20.0932 121.404 20.2073L118.527 32.4003H114.088L117.666 17.3532Z" fill="#1271FE"/>
<path d="M135.197 12.6951L139.795 11.9873L138.663 16.6224H143.6L142.717 20.2757H137.802L136.488 25.7785C136.375 26.2352 136.285 26.669 136.262 27.0572C136.239 27.4682 136.285 27.8107 136.42 28.0847C136.556 28.3815 136.783 28.6099 137.1 28.7697C137.417 28.9295 137.847 28.998 138.414 28.998C138.889 28.998 139.342 28.9524 139.795 28.861C140.248 28.7697 140.701 28.6555 141.154 28.4957L141.471 31.9207C140.883 32.149 140.226 32.3317 139.546 32.4915C138.844 32.6513 138.029 32.7198 137.077 32.7198C135.718 32.7198 134.654 32.5143 133.906 32.1033C133.159 31.6923 132.615 31.1443 132.298 30.4365C131.981 29.7287 131.845 28.9067 131.891 27.9934C131.936 27.08 132.072 26.0982 132.298 25.0935L135.197 12.6951Z" fill="#1271FE"/>
<path d="M159.682 16.6226L157.576 25.5732C157.304 26.7148 157.213 27.8565 157.326 28.9981C157.44 30.1398 157.666 31.1673 158.006 32.0806L154.042 32.6514C153.816 32.2176 153.612 31.7153 153.408 31.1901C152.842 31.624 152.23 31.9893 151.528 32.309C150.826 32.6058 150.056 32.7656 149.218 32.7656C148.04 32.7656 147.111 32.5601 146.386 32.1263C145.662 31.6925 145.118 31.1216 144.756 30.4138C144.393 29.706 144.212 28.884 144.167 27.9706C144.144 27.0573 144.235 26.1212 144.484 25.1622L146.5 16.6454H150.939L148.946 25.0937C148.855 25.5275 148.765 25.9842 148.697 26.4408C148.629 26.8975 148.629 27.3313 148.674 27.7195C148.742 28.1076 148.878 28.4273 149.127 28.6785C149.376 28.9296 149.761 29.0438 150.305 29.0438C150.758 29.0438 151.188 28.9525 151.573 28.7926C151.958 28.6328 152.366 28.336 152.796 27.9021C152.842 27.3998 152.91 26.8747 153 26.3267C153.091 25.7787 153.181 25.2763 153.272 24.8197L155.197 16.6454H159.682V16.6226Z" fill="#1271FE"/>
<path d="M173.77 30.4138C173.476 31.7153 173.091 32.8341 172.592 33.7931C172.117 34.7521 171.505 35.5284 170.78 36.1677C170.056 36.8071 169.195 37.2637 168.176 37.5834C167.156 37.9031 165.979 38.0401 164.642 38.0401C163.397 38.0401 162.332 37.9259 161.494 37.6976C160.633 37.4692 159.863 37.1724 159.184 36.8527L160.679 33.3136C161.29 33.5876 161.924 33.8388 162.604 34.0214C163.261 34.2269 164.076 34.3183 165.05 34.3183C166.318 34.3183 167.27 34.0443 167.927 33.4734C168.561 32.9026 168.991 32.1719 169.195 31.2814L169.308 30.7106C168.9 30.9161 168.493 31.0759 168.04 31.1901C167.587 31.3043 167.134 31.3728 166.635 31.3728C165.707 31.3728 164.891 31.2358 164.235 30.9389C163.555 30.6421 163.011 30.2539 162.581 29.7288C162.151 29.2036 161.834 28.5871 161.63 27.8793C161.426 27.1715 161.313 26.3951 161.313 25.5503C161.313 24.0433 161.585 22.6962 162.151 21.5088C162.694 20.3443 163.442 19.3625 164.37 18.5862C165.299 17.8099 166.341 17.2162 167.541 16.828C168.742 16.4399 169.988 16.2344 171.301 16.2344C172.253 16.2344 173.204 16.3257 174.133 16.5312C175.061 16.7367 175.967 17.0335 176.873 17.4674L173.77 30.4138ZM171.8 20.0703C171.46 20.0018 171.052 19.9562 170.554 19.9562C169.806 19.9562 169.127 20.0932 168.538 20.3672C167.949 20.6412 167.428 21.0065 166.998 21.4632C166.568 21.9198 166.25 22.4678 166.024 23.13C165.797 23.7693 165.684 24.4772 165.684 25.2078C165.684 25.5731 165.707 25.8928 165.775 26.2125C165.843 26.5321 165.933 26.7833 166.092 27.0116C166.25 27.24 166.477 27.4226 166.749 27.5596C167.021 27.6966 167.383 27.7651 167.791 27.7651C168.062 27.7651 168.447 27.7195 168.9 27.6053C169.376 27.514 169.784 27.2856 170.169 26.9203L171.8 20.0703Z" fill="#1271FE"/>
<path d="M184.212 32.8113C183.17 32.8113 182.241 32.6514 181.471 32.3318C180.701 32.0121 180.067 31.5554 179.546 30.9846C179.048 30.4138 178.663 29.7288 178.391 28.9296C178.142 28.1305 178.006 27.2628 178.006 26.3038C178.006 25.1165 178.21 23.9063 178.595 22.719C178.98 21.5088 179.546 20.4357 180.293 19.4767C181.041 18.5177 181.97 17.7414 183.057 17.1249C184.144 16.5084 185.39 16.2115 186.794 16.2115C187.813 16.2115 188.742 16.3714 189.512 16.691C190.305 17.0107 190.939 17.4674 191.437 18.0382C191.936 18.609 192.321 19.294 192.592 20.0932C192.842 20.8923 192.977 21.76 192.977 22.719C192.977 23.9063 192.796 25.1165 192.411 26.3038C192.026 27.514 191.483 28.5871 190.758 29.5461C190.033 30.5051 189.104 31.2814 188.017 31.8979C186.93 32.4916 185.661 32.8113 184.212 32.8113ZM186.409 19.979C185.752 19.979 185.186 20.1617 184.688 20.5499C184.189 20.938 183.782 21.4175 183.442 21.9883C183.102 22.5592 182.853 23.1985 182.694 23.8835C182.536 24.5685 182.445 25.2307 182.445 25.8471C182.445 26.8746 182.604 27.651 182.921 28.199C183.238 28.747 183.804 29.021 184.642 29.021C185.299 29.021 185.865 28.8383 186.364 28.4501C186.862 28.062 187.27 27.5825 187.609 27.0116C187.949 26.4408 188.198 25.8015 188.357 25.1165C188.515 24.4315 188.606 23.7693 188.606 23.1528C188.606 22.1253 188.447 21.349 188.13 20.801C187.813 20.253 187.247 19.979 186.409 19.979Z" fill="#1271FE"/>
</g>
<defs>
<clipPath id="clip0">
<rect width="193" height="49" fill="white"/>
</clipPath>
</defs>
</svg>
